<?xml version="1.0" encoding="utf-8"?>
<!-- Generator: Adobe Illustrator 18.1.1, SVG Export Plug-In . SVG Version: 6.00 Build 0)  -->
<svg xmlns="http://www.w3.org/2000/svg" xmlns:xlink="http://www.w3.org/1999/xlink" version="1.1" x="0px" y="0px" viewBox="0 0 392.4 154.6" enable-background="new 0 0 392.4 154.6" xml:space="preserve">
<g id="HOVER">
	<polygon id="B352" fill="#E5E5E5" points="317.1,72.8 286.2,72.8 286.2,83.3 280.9,83.3 280.9,117.1 288.6,117.1 288.6,127.9    306.2,127.9 306.2,131.8 317.1,131.8  "/>
	<polygon id="B351" points="306.2,127.9 306.2,131.8 317.1,131.8 317.1,154.4 293.6,154.4 293.6,149.5 274.5,149.5    274.5,145.8 260.7,145.8 260.7,112.9 280.9,112.9 280.9,117.1 288.6,117.1 288.6,127.9  " fill="#2a5828"/>
	<polygon id="B242" points="191.3,72.8 160.3,72.8 160.3,83.3 155.1,83.3 155.1,117.1 162.8,117.1 162.8,127.9    180.4,127.9 180.4,131.8 191.3,131.8  " fill="#E5E5E5"/>
	<polygon id="B241" points="180.4,127.9 180.4,131.8 191.3,131.8 191.3,154.4 167.8,154.4 167.8,149.5 148.6,149.5    148.6,145.8 134.8,145.8 134.8,112.9 155.1,112.9 155.1,117.1 162.8,117.1 162.8,127.9  " fill="#BEBEBE"/>
	<polygon id="B132" points="57,72.8 26.1,72.8 26.1,83.3 20.8,83.3 20.8,117.1 28.5,117.1 28.5,127.9 46.1,127.9    46.1,131.8 57,131.8  " fill="#E5E5E5"/>
	<polygon id="B131" points="46.1,127.9 46.1,131.8 57,131.8 57,154.4 33.5,154.4 33.5,149.5 14.4,149.5 14.4,145.8    0.6,145.8 0.6,112.9 20.8,112.9 20.8,117.1 28.5,117.1 28.5,127.9  " fill="#BEBEBE"/>
	<polygon id="A322" points="358.5,13.8 358.5,20.3 353.5,20.3 353.5,27.5 364.2,27.5 364.2,42.1 369,42.1 369,54    391.4,54 391.4,30 385.7,29.9 385.7,13.8  " fill="#BEBEBE"/>
	<path id="A321" d="M353.5,27.5v-7.2h-17v7.1h-10.9v14.7h2.6v12h16.6v-12h19.4V27.5H353.5z" fill="#E5E5E5"/>
	<polygon id="A212" points="232.6,13.8 232.6,20.3 227.7,20.3 227.7,27.5 238.4,27.5 238.4,42.1 243.1,42.1    243.1,54 265.5,54 265.5,30 259.8,29.9 259.8,13.8  " fill="#BEBEBE"/>
	<path id="A211" d="M227.7,27.5v-7.2h-17v7.1h-10.9v14.7h2.6v12h16.6v-12h19.4V27.5H227.7z" fill="#E5E5E5"/>
	<polygon id="A12" points="98.4,13.8 98.4,20.3 93.4,20.3 93.4,27.5 104.1,27.5 104.1,42.1 108.9,42.1 108.9,54    131.3,54 131.3,30 125.6,29.9 125.6,13.8  " fill="#BEBEBE"/>
	<path id="A11" d="M93.4,27.5v-7.2h-17v7.1H65.5v14.7h2.6v12h16.6v-12h19.4V27.5H93.4z" fill="#E5E5E5"/>
</g>
<g id="contours">
	<polygon fill="none" stroke="#464646" stroke-width="1.5" stroke-miterlimit="10" points="0.6,145.8 0.6,112.9 5.5,112.9 5.5,87.2    20.8,87.2 20.8,83.3 26.1,83.3 26.1,73.1 46.1,73.1 46.1,149.4 14.4,149.4 14.4,145.8  "/>
	<line fill="none" stroke="#464646" stroke-width="1.5" stroke-miterlimit="10" x1="5.5" y1="112.9" x2="20.6" y2="112.9"/>
	<polyline fill="none" stroke="#464646" stroke-width="1.5" stroke-miterlimit="10" points="20.8,87.2 20.8,117.1 28.5,117.1    28.5,128.4  "/>
	<line fill="none" stroke="#464646" stroke-width="1.5" stroke-miterlimit="10" x1="46.1" y1="127.9" x2="28.5" y2="127.9"/>
	<polyline fill="none" stroke="#464646" stroke-miterlimit="10" points="33.5,149.5 33.5,154.4 57,154.4 57,72.8 45.9,72.8  "/>
	<line fill="none" stroke="#464646" stroke-miterlimit="10" x1="57" y1="131.8" x2="46.1" y2="131.8"/>
	<polyline fill="none" stroke="#464646" stroke-width="1.5" stroke-miterlimit="10" points="98.4,20.3 76.4,20.3 76.4,27.4    65.5,27.4 65.5,42.2  "/>
	<line fill="none" stroke="#464646" stroke-miterlimit="10" x1="48.2" y1="54.1" x2="84.8" y2="54.1"/>
	<line fill="none" stroke="#464646" stroke-miterlimit="10" x1="48.2" y1="42.1" x2="48.2" y2="54.2"/>
	<line fill="none" stroke="#464646" stroke-miterlimit="10" x1="84.7" y1="42.2" x2="84.7" y2="54.2"/>
	<polyline fill="none" stroke="#464646" stroke-width="1.5" stroke-miterlimit="10" points="104.1,42.2 104.1,27.5 93.4,27.5    93.4,20.3 98.4,20.3 98.4,19.5  "/>
	<path fill="none" stroke="#464646" stroke-width="1.5" stroke-miterlimit="10" d="M93.4,20.3"/>
	<path fill="none" stroke="#464646" stroke-width="1.5" stroke-miterlimit="10" d="M83.6,20.3"/>
	<line fill="none" stroke="#464646" stroke-width="1.5" stroke-miterlimit="10" x1="76" y1="20.3" x2="72.4" y2="20.3"/>
	<polyline fill="none" stroke="#464646" stroke-width="1.5" stroke-miterlimit="10" points="125.8,42.1 46.1,42.1 46.1,13.9    50.1,13.9 50.1,0.6 72.8,0.6 72.8,20.3  "/>
	<polyline fill="none" stroke="#464646" stroke-width="1.5" stroke-miterlimit="10" points="98.4,19.9 98.4,13.8 125.7,13.8    125.7,42.6  "/>
	<line fill="none" stroke="#464646" stroke-width="1.5" stroke-miterlimit="10" x1="72.8" y1="4.6" x2="88.1" y2="4.6"/>
	<path fill="none" stroke="#464646" stroke-width="1.5" stroke-miterlimit="10" d="M98.4,15.2"/>
	<path fill="none" stroke="#464646" stroke-width="1.5" stroke-miterlimit="10" d="M94.9,15.2"/>
	<polyline fill="none" stroke="#464646" stroke-width="1.5" stroke-miterlimit="10" points="98.4,15.2 88.2,15.2 88.2,0.5    125.7,0.5 125.7,14  "/>
	<polyline fill="none" stroke="#464646" stroke-miterlimit="10" points="108.9,42.1 108.9,54 131.3,54 131.3,30 125.8,30  "/>
	<line fill="none" stroke="#464646" stroke-miterlimit="10" x1="68.1" y1="42" x2="68.1" y2="54.1"/>
	<polygon fill="none" stroke="#464646" stroke-width="1.5" stroke-miterlimit="10" points="134.8,145.8 134.8,112.9 139.7,112.9    139.7,87.2 155.1,87.2 155.1,83.3 160.3,83.3 160.3,73.1 180.4,73.1 180.4,149.4 148.6,149.4 148.6,145.8  "/>
	<line fill="none" stroke="#464646" stroke-width="1.5" stroke-miterlimit="10" x1="139.7" y1="112.9" x2="154.8" y2="112.9"/>
	<polyline fill="none" stroke="#464646" stroke-width="1.5" stroke-miterlimit="10" points="155.1,87.2 155.1,117.1 162.8,117.1    162.8,128.4  "/>
	<line fill="none" stroke="#464646" stroke-width="1.5" stroke-miterlimit="10" x1="180.4" y1="127.9" x2="162.8" y2="127.9"/>
	<polyline fill="none" stroke="#464646" stroke-miterlimit="10" points="167.8,149.5 167.8,154.4 191.3,154.4 191.3,72.8    180.1,72.8  "/>
	<line fill="none" stroke="#464646" stroke-miterlimit="10" x1="191.3" y1="131.8" x2="180.4" y2="131.8"/>
	<polyline fill="none" stroke="#464646" stroke-width="1.5" stroke-miterlimit="10" points="232.6,20.3 210.6,20.3 210.6,27.4    199.8,27.4 199.8,42.2  "/>
	<line fill="none" stroke="#464646" stroke-miterlimit="10" x1="182.5" y1="54.1" x2="219.1" y2="54.1"/>
	<line fill="none" stroke="#464646" stroke-miterlimit="10" x1="182.5" y1="42.1" x2="182.5" y2="54.2"/>
	<line fill="none" stroke="#464646" stroke-miterlimit="10" x1="218.9" y1="42.2" x2="218.9" y2="54.2"/>
	<polyline fill="none" stroke="#464646" stroke-width="1.5" stroke-miterlimit="10" points="238.3,42.2 238.3,27.5 227.7,27.5    227.7,20.3 232.6,20.3 232.6,19.5  "/>
	<path fill="none" stroke="#464646" stroke-width="1.5" stroke-miterlimit="10" d="M227.7,20.3"/>
	<path fill="none" stroke="#464646" stroke-width="1.5" stroke-miterlimit="10" d="M217.8,20.3"/>
	<line fill="none" stroke="#464646" stroke-width="1.5" stroke-miterlimit="10" x1="210.2" y1="20.3" x2="206.6" y2="20.3"/>
	<polyline fill="none" stroke="#464646" stroke-width="1.5" stroke-miterlimit="10" points="260.1,42.1 180.4,42.1 180.4,13.9    184.4,13.9 184.4,0.6 207.1,0.6 207.1,20.3  "/>
	<polyline fill="none" stroke="#464646" stroke-width="1.5" stroke-miterlimit="10" points="232.6,19.9 232.6,13.8 259.9,13.8    259.9,42.6  "/>
	<line fill="none" stroke="#464646" stroke-width="1.5" stroke-miterlimit="10" x1="207.1" y1="4.6" x2="222.4" y2="4.6"/>
	<path fill="none" stroke="#464646" stroke-width="1.5" stroke-miterlimit="10" d="M232.6,15.2"/>
	<path fill="none" stroke="#464646" stroke-width="1.5" stroke-miterlimit="10" d="M229.1,15.2"/>
	<polyline fill="none" stroke="#464646" stroke-width="1.5" stroke-miterlimit="10" points="232.6,15.2 222.4,15.2 222.4,0.5    259.9,0.5 259.9,14  "/>
	<polyline fill="none" stroke="#464646" stroke-miterlimit="10" points="243.1,42.1 243.1,54 265.5,54 265.5,30 260,30  "/>
	<line fill="none" stroke="#464646" stroke-miterlimit="10" x1="202.3" y1="42" x2="202.3" y2="54.1"/>
	<polygon fill="none" stroke="#464646" stroke-width="1.5" stroke-miterlimit="10" points="260.7,145.8 260.7,112.9 265.6,112.9    265.6,87.2 280.9,87.2 280.9,83.3 286.2,83.3 286.2,73.1 306.2,73.1 306.2,149.4 274.5,149.4 274.5,145.8  "/>
	<line fill="none" stroke="#464646" stroke-width="1.5" stroke-miterlimit="10" x1="265.6" y1="112.9" x2="280.7" y2="112.9"/>
	<polyline fill="none" stroke="#464646" stroke-width="1.5" stroke-miterlimit="10" points="280.9,87.2 280.9,117.1 288.6,117.1    288.6,128.4  "/>
	<line fill="none" stroke="#464646" stroke-width="1.5" stroke-miterlimit="10" x1="306.2" y1="127.9" x2="288.6" y2="127.9"/>
	<polyline fill="none" stroke="#464646" stroke-miterlimit="10" points="293.6,149.5 293.6,154.4 317.1,154.4 317.1,72.8 306,72.8     "/>
	<line fill="none" stroke="#464646" stroke-miterlimit="10" x1="317.1" y1="131.8" x2="306.2" y2="131.8"/>
	<polyline fill="none" stroke="#464646" stroke-width="1.5" stroke-miterlimit="10" points="358.5,20.3 336.5,20.3 336.5,27.4    325.6,27.4 325.6,42.2  "/>
	<line fill="none" stroke="#464646" stroke-miterlimit="10" x1="308.3" y1="54.1" x2="344.9" y2="54.1"/>
	<line fill="none" stroke="#464646" stroke-miterlimit="10" x1="308.3" y1="42.1" x2="308.3" y2="54.2"/>
	<line fill="none" stroke="#464646" stroke-miterlimit="10" x1="344.8" y1="42.2" x2="344.8" y2="54.2"/>
	<polyline fill="none" stroke="#464646" stroke-width="1.5" stroke-miterlimit="10" points="364.2,42.2 364.2,27.5 353.5,27.5    353.5,20.3 358.5,20.3 358.5,19.5  "/>
	<path fill="none" stroke="#464646" stroke-width="1.5" stroke-miterlimit="10" d="M353.5,20.3"/>
	<path fill="none" stroke="#464646" stroke-width="1.5" stroke-miterlimit="10" d="M343.7,20.3"/>
	<line fill="none" stroke="#464646" stroke-width="1.5" stroke-miterlimit="10" x1="336.1" y1="20.3" x2="332.5" y2="20.3"/>
	<polyline fill="none" stroke="#464646" stroke-width="1.5" stroke-miterlimit="10" points="385.9,42.1 306.2,42.1 306.2,13.9    310.2,13.9 310.2,0.6 332.9,0.6 332.9,20.3  "/>
	<polyline fill="none" stroke="#464646" stroke-width="1.5" stroke-miterlimit="10" points="358.5,19.9 358.5,13.8 385.8,13.8    385.8,42.6  "/>
	<line fill="none" stroke="#464646" stroke-width="1.5" stroke-miterlimit="10" x1="332.9" y1="4.6" x2="348.2" y2="4.6"/>
	<path fill="none" stroke="#464646" stroke-width="1.5" stroke-miterlimit="10" d="M358.5,15.2"/>
	<path fill="none" stroke="#464646" stroke-width="1.5" stroke-miterlimit="10" d="M355,15.2"/>
	<polyline fill="none" stroke="#464646" stroke-width="1.5" stroke-miterlimit="10" points="358.5,15.2 348.3,15.2 348.3,0.5    385.8,0.5 385.8,14  "/>
	<polyline fill="none" stroke="#464646" stroke-miterlimit="10" points="369,42.1 369,54 391.4,54 391.4,30 385.9,30  "/>
	<line fill="none" stroke="#464646" stroke-miterlimit="10" x1="328.2" y1="42" x2="328.2" y2="54.1"/>
</g>
<g id="nom_bâtiment" display="none">
	
		<text transform="matrix(1 0 0 1 68.7166 30.7491)" display="inline" fill="#4F4F4F" font-family="'Raleway-Bold'" font-size="20.444">A1</text>
	
		<text transform="matrix(1 0 0 1 12.6106 120.5401)" display="inline" fill="#4F4F4F" font-family="'Raleway-Bold'" font-size="20.444">B1</text>
	
		<text transform="matrix(1 0 0 1 204.6912 30.7491)" display="inline" fill="#4F4F4F" font-family="'Raleway-Bold'" font-size="20.444">A2</text>
	
		<text transform="matrix(1 0 0 1 341.5555 30.7491)" display="inline" fill="#4F4F4F" font-family="'Raleway-Bold'" font-size="20.444">A3</text>
	
		<text transform="matrix(1 0 0 1 148.5853 120.5401)" display="inline" fill="#4F4F4F" font-family="'Raleway-Bold'" font-size="20.444">B2</text>
	
		<text transform="matrix(1 0 0 1 285.449 120.5401)" display="inline" fill="#4F4F4F" font-family="'Raleway-Bold'" font-size="20.444">B3</text>
</g>
</svg>
