<?xml version="1.0" encoding="utf-8"?>
<!-- Generator: Adobe Illustrator 18.1.1, SVG Export Plug-In . SVG Version: 6.00 Build 0)  -->
<svg xmlns="http://www.w3.org/2000/svg" xmlns:xlink="http://www.w3.org/1999/xlink" version="1.1" x="0px" y="0px" viewBox="0 0 392.4 154.6" enable-background="new 0 0 392.4 154.6" xml:space="preserve">
<g id="HOVER">
	<polygon id="B358" fill="#BEBEBE" points="281.3,97.9 260.8,97.9 260.8,65.2 274.3,65.2 274.3,61.6 305.8,61.6 305.8,65.5    317.1,65.5 317.1,87.2 305.8,87.2 305.8,83 288.6,83 288.6,93.6 281.3,93.6  "/>
	<polygon id="B357" fill="#E5E5E5" points="281.3,117.3 288.6,117.3 288.6,128.1 305.8,128.1 305.8,131.6 317.1,131.6 317.1,113.1    305.8,113.1 305.8,83 288.6,83 288.6,93.6 281.3,93.6  "/>
	<polygon id="B356" fill="#BEBEBE" points="305.8,128.1 305.8,131.6 317.1,131.6 317.1,154.4 293.5,154.4 293.5,149.4 274.3,149.4    274.3,145.8 260.8,145.8 260.8,112.8 281.3,112.8 281.3,117.3 288.6,117.3 288.6,128.1  "/>
	<polygon id="B248" fill="#BEBEBE" points="155.5,97.9 135,97.9 135,65.2 148.5,65.2 148.5,61.6 179.9,61.6 179.9,65.5 191.3,65.5    191.3,87.2 179.9,87.2 179.9,83 162.7,83 162.7,93.6 155.5,93.6  "/>
	<polygon id="B247" fill="#E5E5E5" points="155.5,117.3 162.7,117.3 162.7,128.1 179.9,128.1 179.9,131.6 191.3,131.6 191.3,113.1    179.9,113.1 179.9,83 162.7,83 162.7,93.6 155.5,93.6  "/>
	<polygon id="B246" fill="#BEBEBE" points="179.9,128.1 179.9,131.6 191.3,131.6 191.3,154.4 167.6,154.4 167.6,149.4 148.5,149.4    148.5,145.8 135,145.8 135,112.8 155.5,112.8 155.5,117.3 162.7,117.3 162.7,128.1  "/>
	<polygon id="B138" fill="#BEBEBE" points="21.2,97.9 0.7,97.9 0.7,65.2 14.2,65.2 14.2,61.6 45.7,61.6 45.7,65.5 57,65.5 57,87.2    45.7,87.2 45.7,83 28.5,83 28.5,93.6 21.2,93.6  "/>
	<polygon id="B137" points="21.2,117.3 28.5,117.3 28.5,128.1 45.7,128.1 45.7,131.6 57,131.6 57,113.1 45.7,113.1    45.7,83 28.5,83 28.5,93.6 21.2,93.6  " fill="#2a5828"/>
	<polygon id="B136" points="45.7,128.1 45.7,131.6 57,131.6 57,154.4 33.4,154.4 33.4,149.4 14.2,149.4 14.2,145.8    0.7,145.8 0.7,112.8 21.2,112.8 21.2,117.3 28.5,117.3 28.5,128.1  " fill="#BEBEBE"/>
	<polygon id="A328" points="348.3,20.6 348.3,0.6 381.7,0.6 381.7,14 386.2,14 386.2,30.6 391.6,30.6 391.6,54.2    369.4,54.2 369.4,42.6 364.4,42.6 364.4,27.7 353.6,27.7 353.6,20.6  " fill="#BEBEBE"/>
	<polygon id="A327" points="364.4,42.6 344.8,42.6 344.8,54.2 328.5,54.2 328.5,42.6 325.9,42.6 325.9,27.7    336.8,27.7 336.8,20.6 353.6,20.6 353.6,27.7 364.4,27.7  " fill="#E5E5E5"/>
	<polygon id="A326" points="325.9,42.6 328.5,42.6 328.5,54.2 308.5,54.2 308.5,42.6 305.7,42.6 305.7,13.9    310.2,13.9 310.2,0.6 333.5,0.6 333.5,20.6 336.8,20.6 336.8,27.7 325.9,27.7  " fill="#BEBEBE"/>
	<polygon id="A218" points="232,20.6 232,0.6 265.4,0.6 265.4,14 269.9,14 269.9,30.6 275.3,30.6 275.3,54.2    253.2,54.2 253.2,42.6 248.1,42.6 248.1,27.7 237.3,27.7 237.3,20.6  " fill="#BEBEBE"/>
	<polygon id="A217" points="248.1,42.6 228.5,42.6 228.5,54.2 212.2,54.2 212.2,42.6 209.6,42.6 209.6,27.7    220.5,27.7 220.5,20.6 237.3,20.6 237.3,27.7 248.1,27.7  " fill="#E5E5E5"/>
	<polygon id="A216" points="209.6,42.6 212.2,42.6 212.2,54.2 192.3,54.2 192.3,42.6 189.5,42.6 189.5,13.9    194,13.9 194,0.6 217.2,0.6 217.2,20.6 220.5,20.6 220.5,27.7 209.6,27.7  " fill="#BEBEBE"/>
	<polygon id="A18" points="88.2,20.6 88.2,0.6 121.6,0.6 121.6,14 126.1,14 126.1,30.6 131.5,30.6 131.5,54.2    109.3,54.2 109.3,42.6 104.3,42.6 104.3,27.7 93.5,27.7 93.5,20.6  " fill="#BEBEBE"/>
	<polygon id="A17" points="104.3,42.6 84.7,42.6 84.7,54.2 68.4,54.2 68.4,42.6 65.8,42.6 65.8,27.7 76.7,27.7    76.7,20.6 93.5,20.6 93.5,27.7 104.3,27.7  " fill="#E5E5E5"/>
	<polygon id="A16" points="65.8,42.6 68.4,42.6 68.4,54.2 48.4,54.2 48.4,42.6 45.6,42.6 45.6,13.9 50.1,13.9    50.1,0.6 73.4,0.6 73.4,20.6 76.7,20.6 76.7,27.7 65.8,27.7  " fill="#BEBEBE"/>
</g>
<g id="contours">
	<polyline fill="none" stroke="#464646" stroke-width="1.5" stroke-miterlimit="10" points="88.2,20.6 88.2,0.6 121.5,0.6    121.5,13.8 126.1,13.8 126.1,42.6 45.6,42.6 45.6,13.8 50.1,13.8 50.1,0.6 73.4,0.6 73.4,20.6 93.6,20.6 93.6,27.7 104.7,27.7  "/>
	<line fill="none" stroke="#464646" stroke-width="1.5" stroke-miterlimit="10" x1="104.3" y1="27.7" x2="104.3" y2="42.6"/>
	<line fill="none" stroke="#464646" stroke-width="1.5" stroke-miterlimit="10" x1="73.4" y1="5.2" x2="88.2" y2="5.2"/>
	<polyline fill="none" stroke="#464646" stroke-width="1.5" stroke-miterlimit="10" points="76.8,20.6 76.8,27.7 65.3,27.7  "/>
	<line fill="none" stroke="#464646" stroke-width="1.5" stroke-miterlimit="10" x1="65.8" y1="27.7" x2="65.8" y2="42.6"/>
	<polyline fill="none" stroke="#464646" stroke-miterlimit="10" points="48.4,42.6 48.4,54.2 84.7,54.2 84.7,42.6  "/>
	<polyline fill="none" stroke="#464646" stroke-miterlimit="10" points="109.3,42.6 109.3,54.2 131.5,54.2 131.5,30.6 126.1,30.6     "/>
	<line fill="none" stroke="#464646" stroke-miterlimit="10" x1="68.4" y1="54.2" x2="68.4" y2="42.6"/>
	<polyline fill="none" stroke="#464646" stroke-width="1.5" stroke-miterlimit="10" points="281.3,97.9 260.8,97.9 260.8,65.2    274.3,65.2 274.3,61.6 305.8,61.6 305.8,149.4 274.3,149.4 274.3,145.8 260.8,145.8 260.8,112.8 281.3,112.8  "/>
	<polyline fill="none" stroke="#464646" stroke-width="1.5" stroke-miterlimit="10" points="305.8,128.1 288.6,128.1 288.6,117.3    281.3,117.3 281.3,93.6 288.6,93.6 288.6,83 305.8,83  "/>
	<line fill="none" stroke="#464646" stroke-width="1.5" stroke-miterlimit="10" x1="266" y1="112.8" x2="266" y2="97.9"/>
	<polyline fill="none" stroke="#464646" stroke-miterlimit="10" points="293.5,149.4 293.5,154.4 317.1,154.4 317.1,131.6    317.1,113.1 305.8,113.1  "/>
	<line fill="none" stroke="#464646" stroke-miterlimit="10" x1="305.8" y1="131.6" x2="317.1" y2="131.6"/>
	<polyline fill="none" stroke="#464646" stroke-miterlimit="10" points="305.8,87.2 317.1,87.2 317.1,65.5 305.8,65.5  "/>
	<polyline fill="none" stroke="#464646" stroke-width="1.5" stroke-miterlimit="10" points="21.2,97.9 0.7,97.9 0.7,65.2 14.2,65.2    14.2,61.6 45.7,61.6 45.7,149.4 14.2,149.4 14.2,145.8 0.7,145.8 0.7,112.8 21.2,112.8  "/>
	<polyline fill="none" stroke="#464646" stroke-width="1.5" stroke-miterlimit="10" points="45.7,128.1 28.5,128.1 28.5,117.3    21.2,117.3 21.2,93.6 28.5,93.6 28.5,83 45.7,83  "/>
	<line fill="none" stroke="#464646" stroke-width="1.5" stroke-miterlimit="10" x1="5.9" y1="112.8" x2="5.9" y2="97.9"/>
	<polyline fill="none" stroke="#464646" stroke-miterlimit="10" points="33.4,149.4 33.4,154.4 57,154.4 57,131.6 57,113.1    45.7,113.1  "/>
	<line fill="none" stroke="#464646" stroke-miterlimit="10" x1="45.7" y1="131.6" x2="57" y2="131.6"/>
	<polyline fill="none" stroke="#464646" stroke-miterlimit="10" points="45.7,87.2 57,87.2 57,65.5 45.7,65.5  "/>
	<polyline fill="none" stroke="#464646" stroke-width="1.5" stroke-miterlimit="10" points="155.5,97.9 135,97.9 135,65.2    148.5,65.2 148.5,61.6 179.9,61.6 179.9,149.4 148.5,149.4 148.5,145.8 135,145.8 135,112.8 155.5,112.8  "/>
	<polyline fill="none" stroke="#464646" stroke-width="1.5" stroke-miterlimit="10" points="179.9,128.1 162.7,128.1 162.7,117.3    155.5,117.3 155.5,93.6 162.7,93.6 162.7,83 179.9,83  "/>
	<line fill="none" stroke="#464646" stroke-width="1.5" stroke-miterlimit="10" x1="140.1" y1="112.8" x2="140.1" y2="97.9"/>
	<polyline fill="none" stroke="#464646" stroke-miterlimit="10" points="167.6,149.4 167.6,154.4 191.3,154.4 191.3,131.6    191.3,113.1 179.9,113.1  "/>
	<line fill="none" stroke="#464646" stroke-miterlimit="10" x1="179.9" y1="131.6" x2="191.3" y2="131.6"/>
	<polyline fill="none" stroke="#464646" stroke-miterlimit="10" points="179.9,87.2 191.3,87.2 191.3,65.5 179.9,65.5  "/>
	<polyline fill="none" stroke="#464646" stroke-width="1.5" stroke-miterlimit="10" points="232,20.6 232,0.6 265.4,0.6 265.4,13.8    269.9,13.8 269.9,42.6 189.5,42.6 189.5,13.8 194,13.8 194,0.6 217.2,0.6 217.2,20.6 237.4,20.6 237.4,27.7 248.6,27.7  "/>
	<line fill="none" stroke="#464646" stroke-width="1.5" stroke-miterlimit="10" x1="248.1" y1="27.7" x2="248.1" y2="42.6"/>
	<line fill="none" stroke="#464646" stroke-width="1.5" stroke-miterlimit="10" x1="217.2" y1="5.2" x2="232" y2="5.2"/>
	<polyline fill="none" stroke="#464646" stroke-width="1.5" stroke-miterlimit="10" points="220.6,20.6 220.6,27.7 209.2,27.7  "/>
	<line fill="none" stroke="#464646" stroke-width="1.5" stroke-miterlimit="10" x1="209.6" y1="27.7" x2="209.6" y2="42.6"/>
	<polyline fill="none" stroke="#464646" stroke-miterlimit="10" points="192.3,42.6 192.3,54.2 228.5,54.2 228.5,42.6  "/>
	<polyline fill="none" stroke="#464646" stroke-miterlimit="10" points="253.2,42.6 253.2,54.2 275.3,54.2 275.3,30.6 269.9,30.6     "/>
	<line fill="none" stroke="#464646" stroke-miterlimit="10" x1="212.2" y1="54.2" x2="212.2" y2="42.6"/>
	<polyline fill="none" stroke="#464646" stroke-width="1.5" stroke-miterlimit="10" points="348.3,20.6 348.3,0.6 381.6,0.6    381.6,13.8 386.2,13.8 386.2,42.6 305.7,42.6 305.7,13.8 310.2,13.8 310.2,0.6 333.5,0.6 333.5,20.6 353.7,20.6 353.7,27.7    364.8,27.7  "/>
	<line fill="none" stroke="#464646" stroke-width="1.5" stroke-miterlimit="10" x1="364.4" y1="27.7" x2="364.4" y2="42.6"/>
	<line fill="none" stroke="#464646" stroke-width="1.5" stroke-miterlimit="10" x1="333.5" y1="5.2" x2="348.3" y2="5.2"/>
	<polyline fill="none" stroke="#464646" stroke-width="1.5" stroke-miterlimit="10" points="336.9,20.6 336.9,27.7 325.4,27.7  "/>
	<line fill="none" stroke="#464646" stroke-width="1.5" stroke-miterlimit="10" x1="325.9" y1="27.7" x2="325.9" y2="42.6"/>
	<polyline fill="none" stroke="#464646" stroke-miterlimit="10" points="308.5,42.6 308.5,54.2 344.8,54.2 344.8,42.6  "/>
	<polyline fill="none" stroke="#464646" stroke-miterlimit="10" points="369.4,42.6 369.4,54.2 391.6,54.2 391.6,30.6 386.2,30.6     "/>
	<line fill="none" stroke="#464646" stroke-miterlimit="10" x1="328.5" y1="54.2" x2="328.5" y2="42.6"/>
</g>
<g id="nom_bâtiment" display="none">
	
		<text transform="matrix(1 0 0 1 68.7166 30.7491)" display="inline" fill="#4F4F4F" font-family="'Raleway-Bold'" font-size="20.444">A1</text>
	
		<text transform="matrix(1 0 0 1 12.6106 120.5401)" display="inline" fill="#4F4F4F" font-family="'Raleway-Bold'" font-size="20.444">B1</text>
	
		<text transform="matrix(1 0 0 1 204.6912 30.7491)" display="inline" fill="#4F4F4F" font-family="'Raleway-Bold'" font-size="20.444">A2</text>
	
		<text transform="matrix(1 0 0 1 341.5555 30.7491)" display="inline" fill="#4F4F4F" font-family="'Raleway-Bold'" font-size="20.444">A3</text>
	
		<text transform="matrix(1 0 0 1 148.5853 120.5401)" display="inline" fill="#4F4F4F" font-family="'Raleway-Bold'" font-size="20.444">B2</text>
	
		<text transform="matrix(1 0 0 1 285.449 120.5401)" display="inline" fill="#4F4F4F" font-family="'Raleway-Bold'" font-size="20.444">B3</text>
</g>
</svg>
