<?xml version="1.0" encoding="utf-8"?>
<!-- Generator: Adobe Illustrator 18.1.1, SVG Export Plug-In . SVG Version: 6.00 Build 0)  -->
<svg xmlns="http://www.w3.org/2000/svg" xmlns:xlink="http://www.w3.org/1999/xlink" version="1.1" x="0px" y="0px" viewBox="0 0 780 350" enable-background="new 0 0 780 350" xml:space="preserve">
<g id="fond">
	<rect id="A11-A211-A321" x="222.5" y="266.8" width="302.8" height="82.8" fill="#E5E5E5"/>
	<rect id="A12-A212-A322" x="525.3" y="266.8" width="224" height="82.8" fill="#2a5828"/>
	<rect id="A13-A213-A323" x="30.7" y="184" width="191.9" height="82.8" fill="#E5E5E5"/>
	<rect id="A14-A214-A324" x="222.5" y="184" width="302.8" height="82.8" fill="#E5E5E5"/>
	<rect id="A15-A215-A325" x="525.3" y="184" width="224" height="82.8" fill="#E5E5E5"/>
	<rect id="A16-A216-A326" x="30.7" y="101.1" width="191.9" height="82.8" fill="#E5E5E5"/>
	<rect id="A17-A217-A327" x="222.5" y="101.1" width="302.8" height="82.8" fill="#E5E5E5"/>
	<rect id="A18-A218-A328" x="525.3" y="101.1" width="224" height="82.8" fill="#E5E5E5"/>
	<rect id="A19-A219-A329" x="30.7" y="18.3" width="191.9" height="82.8" fill="#E5E5E5"/>
	<polygon id="A110-A220-A330" points="669.7,82.7 669.7,43.2 708.6,43.2 708.6,36.4 669.7,36.4 669.7,18.3    525.3,18.3 355.4,18.3 355.4,0.5 295.7,0.5 295.7,18.3 222.5,18.3 222.5,101.1 525.3,101.1 741.2,101.1 741.2,82.7  " fill="#E5E5E5"/>
</g>
<g id="entree">
	
		<rect x="30.7" y="266.8" fill="#F7F7F7" stroke="#464646" stroke-width="0.382" stroke-miterlimit="10" width="191.9" height="82.8"/>
</g>
<g id="contour_interieur">
	<rect x="525.3" y="266.8" fill="none" stroke="#464646" stroke-width="2.5" stroke-miterlimit="10" width="224" height="82.8"/>
	<rect x="222.5" y="266.8" fill="none" stroke="#464646" stroke-width="2.5" stroke-miterlimit="10" width="302.8" height="82.8"/>
	<rect x="525.3" y="184" fill="none" stroke="#464646" stroke-width="2.5" stroke-miterlimit="10" width="224" height="82.8"/>
	<rect x="222.5" y="184" fill="none" stroke="#464646" stroke-width="2.5" stroke-miterlimit="10" width="302.8" height="82.8"/>
	<rect x="30.7" y="184" fill="none" stroke="#464646" stroke-width="2.5" stroke-miterlimit="10" width="191.9" height="82.8"/>
	<rect x="525.3" y="101.1" fill="none" stroke="#464646" stroke-width="2.5" stroke-miterlimit="10" width="224" height="82.8"/>
	<rect x="222.5" y="101.1" fill="none" stroke="#464646" stroke-width="2.5" stroke-miterlimit="10" width="302.8" height="82.8"/>
	<rect x="30.7" y="101.1" fill="none" stroke="#464646" stroke-width="2.5" stroke-miterlimit="10" width="191.9" height="82.8"/>
	<polygon fill="none" stroke="#464646" stroke-width="2.5" stroke-miterlimit="10" points="669.7,82.7 669.7,43.2 708.6,43.2    708.6,36.4 669.7,36.4 669.7,18.3 525.3,18.3 355.4,18.3 355.4,0.5 295.7,0.5 295.7,18.3 222.5,18.3 222.5,101.1 525.3,101.1    741.2,101.1 741.2,82.7  "/>
	<rect x="30.7" y="18.3" fill="none" stroke="#464646" stroke-width="2.5" stroke-miterlimit="10" width="191.9" height="82.8"/>
</g>
<g id="contour_exterieur">
	<g>
		<path fill="#464646" d="M355.4,0.5v17.8h314.3v18.1h38.9v6.8h-38.9v39.5h71.5v18.5h8.1v248.5H30.7V18.3h265V0.5H355.4 M360.4-4.5    h-5h-59.7h-5v5v12.8h-260h-5v5v331.3v5h5h718.6h5v-5V101.1v-5h-5h-3.1V82.7v-5h-5h-66.5V48.2h33.9h5v-5v-6.8v-5h-5h-33.9V18.3v-5    h-5H360.4V0.5V-4.5L360.4-4.5z"/>
	</g>
</g>
<g id="repere">
</g>
</svg>
