<?xml version="1.0" encoding="utf-8"?>
<!-- Generator: Adobe Illustrator 18.1.1, SVG Export Plug-In . SVG Version: 6.00 Build 0)  -->
<svg version="1.1" xmlns="http://www.w3.org/2000/svg" xmlns:xlink="http://www.w3.org/1999/xlink" x="0px" y="0px"
	 viewBox="0 0 1900 575" enable-background="new 0 0 1900 575" xml:space="preserve">
<g id="HOVER">
	<polygon id="B1-L39_x5F_B2-L49_x5F_B3-L59_1_" fill="#727272" points="898,6.4 898,164.1 945.4,164.1 945.4,213 1093.1,213 
		1093.1,286 1198.8,286 1198.8,457.7 900,457.7 900,572.3 484.6,572.3 484.6,330 534.1,330 534.1,143.4 571.5,143.4 571.5,6.4 	"/>
	<polygon id="B1-L40_x5F_B2-L50_x5F_B3-L60_1_" fill="#919191" points="1050.7,213 1050.7,6.4 1375.9,6.4 1375.9,143.4 
		1411.7,143.4 1411.7,457.7 1374,457.7 1374,572.3 1157.4,572.3 1157.4,457.7 1198.8,457.7 1198.8,286 1093.1,286 1093.1,213 	"/>
</g>
<g id="contours">
	<polyline fill="none" stroke="#464646" stroke-width="9.2" stroke-miterlimit="10" points="898,56.6 898,164.1 945.4,164.1 
		945.4,213 1093.1,213 1093.1,286 1198.8,286 1198.8,457.7 	"/>
	<polyline fill="none" stroke="#464646" stroke-width="9.2" stroke-miterlimit="10" points="1050.7,56.6 687.2,56.6 687.2,457.7 
		1411.7,457.7 1411.7,143.4 1375.9,143.4 1375.9,6.4 1050.7,6.4 1050.7,213 	"/>
	<polyline fill="none" stroke="#464646" stroke-width="3.45" stroke-miterlimit="10" points="898,56.6 898,6.4 571.5,6.4 
		571.5,143.4 534.1,143.4 534.1,330 484.6,330 484.6,572.3 900,572.3 900,457.7 	"/>
	<polyline fill="none" stroke="#464646" stroke-width="3.45" stroke-miterlimit="10" points="1157.4,457.7 1157.4,572.3 1374,572.3 
		1374,457.7 	"/>
</g>
</svg>
